<svg width="937" height="908" viewBox="0 0 937 908" fill="none" xmlns="http://www.w3.org/2000/svg">
<g clip-path="url(#clip0)">
<path d="M-37.4189 583.738L-32.2274 439.367L-101.805 474.575L-37.4189 583.738Z" stroke="#595959" stroke-width="0.545232" stroke-miterlimit="10" stroke-linecap="round" stroke-linejoin="round"/>
<path d="M51.7278 375.736L-25.2482 301.775L-76.5806 389.472L51.7278 375.736Z" stroke="#595959" stroke-width="0.545232" stroke-miterlimit="10" stroke-linecap="round" stroke-linejoin="round"/>
<path d="M-32.2372 439.357L51.7181 375.727L-76.6001 389.473L-32.2372 439.357Z" stroke="#595959" stroke-width="0.545232" stroke-miterlimit="10" stroke-linecap="round" stroke-linejoin="round"/>
<path d="M56.1203 377.72C55.0233 380.148 52.1558 381.235 49.7296 380.14C47.3033 379.045 46.2185 376.179 47.3155 373.752C48.4125 371.324 51.28 370.237 53.7062 371.332C56.1422 372.436 57.2173 375.293 56.1203 377.72Z" fill="#595959"/>
<path d="M552.163 915.681L466.336 875.551L494.453 975.386L552.163 915.681Z" stroke="#595959" stroke-width="0.545232" stroke-miterlimit="10" stroke-linecap="round" stroke-linejoin="round"/>
<path d="M494.452 975.386L417.71 904.537L409.894 1009.44L494.452 975.386Z" stroke="#595959" stroke-width="0.545232" stroke-miterlimit="10" stroke-linecap="round" stroke-linejoin="round"/>
<path d="M466.335 875.551L417.7 904.527L494.443 975.376L466.335 875.551Z" stroke="#595959" stroke-width="0.545232" stroke-miterlimit="10" stroke-linecap="round" stroke-linejoin="round"/>
<path d="M417.71 904.536L358.815 966.717L409.894 1009.44L417.71 904.536Z" stroke="#595959" stroke-width="0.545232" stroke-miterlimit="10" stroke-linecap="round" stroke-linejoin="round"/>
<path d="M466.335 875.551L410.112 782.442L417.71 904.537L466.335 875.551Z" stroke="#595959" stroke-width="0.545232" stroke-miterlimit="10" stroke-linecap="round" stroke-linejoin="round"/>
<path d="M417.71 904.537L342.502 904.394L358.815 966.718L417.71 904.537Z" stroke="#595959" stroke-width="0.545232" stroke-miterlimit="10" stroke-linecap="round" stroke-linejoin="round"/>
<path d="M410.113 782.442L342.492 904.385L417.701 904.527L410.113 782.442Z" stroke="#595959" stroke-width="0.545232" stroke-miterlimit="10" stroke-linecap="round" stroke-linejoin="round"/>
<path d="M242.49 922.404L276.303 1019.71L358.796 966.718L242.49 922.404Z" stroke="#595959" stroke-width="0.545232" stroke-miterlimit="10" stroke-linecap="round" stroke-linejoin="round"/>
<path d="M342.492 904.384L242.49 922.403L358.805 966.708L342.492 904.384Z" stroke="#595959" stroke-width="0.545232" stroke-miterlimit="10" stroke-linecap="round" stroke-linejoin="round"/>
<path d="M464.233 872.118C466.239 870.502 469.175 870.834 470.788 872.839C472.402 874.844 472.068 877.78 470.061 879.395C468.055 881.011 465.119 880.679 463.506 878.674C461.902 876.659 462.216 873.723 464.233 872.118Z" fill="#595959"/>
<path d="M407.208 778.813C409.214 777.198 412.15 777.529 413.763 779.534C415.377 781.54 415.043 784.475 413.036 786.091C411.03 787.706 408.094 787.375 406.48 785.37C404.867 783.345 405.191 780.419 407.208 778.813Z" fill="#595959"/>
<path d="M414.796 900.898C416.802 899.283 419.738 899.614 421.351 901.619C422.965 903.625 422.631 906.56 420.624 908.176C418.618 909.791 415.682 909.46 414.069 907.454C412.455 905.449 412.789 902.514 414.796 900.898Z" fill="#595959"/>
<path d="M339.607 900.501C341.614 898.886 344.549 899.217 346.163 901.222C347.777 903.228 347.443 906.163 345.436 907.779C343.429 909.394 340.494 909.063 338.88 907.057C337.266 905.052 337.6 902.117 339.607 900.501Z" fill="#595959"/>
<g opacity="0.35">
<path opacity="0.35" d="M704.399 850.278L771.007 846.853L762.118 790.563L704.399 850.278Z" stroke="#595959" stroke-width="0.545232" stroke-miterlimit="10" stroke-linecap="round" stroke-linejoin="round"/>
<path opacity="0.35" d="M704.399 850.277L689.799 916.284L770.998 846.843L704.399 850.277Z" stroke="#595959" stroke-width="0.545232" stroke-miterlimit="10" stroke-linecap="round" stroke-linejoin="round"/>
<path opacity="0.35" d="M689.799 916.284L771.259 962.248L770.997 846.862L689.799 916.284Z" stroke="#595959" stroke-width="0.545232" stroke-miterlimit="10" stroke-linecap="round" stroke-linejoin="round"/>
<path opacity="0.35" d="M704.399 850.277L619.84 884.327L689.799 916.284L704.399 850.277Z" stroke="#595959" stroke-width="0.545232" stroke-miterlimit="10" stroke-linecap="round" stroke-linejoin="round"/>
<path opacity="0.35" d="M689.799 916.284L645.744 988.41L771.259 962.247L689.799 916.284Z" stroke="#595959" stroke-width="0.545232" stroke-miterlimit="10" stroke-linecap="round" stroke-linejoin="round"/>
<path opacity="0.35" d="M762.108 790.573L676.281 750.443L704.398 850.278L762.108 790.573Z" stroke="#595959" stroke-width="0.545232" stroke-miterlimit="10" stroke-linecap="round" stroke-linejoin="round"/>
<path opacity="0.35" d="M704.398 850.277L627.656 779.428L619.84 884.328L704.398 850.277Z" stroke="#595959" stroke-width="0.545232" stroke-miterlimit="10" stroke-linecap="round" stroke-linejoin="round"/>
<path opacity="0.35" d="M771.259 962.248L860.687 913.586L771.007 846.853L771.259 962.248Z" stroke="#595959" stroke-width="0.545232" stroke-miterlimit="10" stroke-linecap="round" stroke-linejoin="round"/>
<path opacity="0.35" d="M676.281 750.443L627.646 779.419L704.389 850.268L676.281 750.443Z" stroke="#595959" stroke-width="0.545232" stroke-miterlimit="10" stroke-linecap="round" stroke-linejoin="round"/>
<path opacity="0.35" d="M619.84 884.327L645.744 988.429L689.799 916.303L619.84 884.327Z" stroke="#595959" stroke-width="0.545232" stroke-miterlimit="10" stroke-linecap="round" stroke-linejoin="round"/>
<path opacity="0.35" d="M627.656 779.428L568.761 841.609L619.84 884.328L627.656 779.428Z" stroke="#595959" stroke-width="0.545232" stroke-miterlimit="10" stroke-linecap="round" stroke-linejoin="round"/>
<path opacity="0.35" d="M771.259 962.248L886.089 1001.82L860.668 913.586L771.259 962.248Z" stroke="#595959" stroke-width="0.545232" stroke-miterlimit="10" stroke-linecap="round" stroke-linejoin="round"/>
<path opacity="0.35" d="M676.281 750.443L620.058 657.333L627.656 779.428L676.281 750.443Z" stroke="#595959" stroke-width="0.545232" stroke-miterlimit="10" stroke-linecap="round" stroke-linejoin="round"/>
<path opacity="0.35" d="M627.656 779.428L552.448 779.285L568.761 841.609L627.656 779.428Z" stroke="#595959" stroke-width="0.545232" stroke-miterlimit="10" stroke-linecap="round" stroke-linejoin="round"/>
<path opacity="0.35" d="M540.398 987.929L645.744 988.41L619.84 884.308L540.398 987.929Z" stroke="#595959" stroke-width="0.545232" stroke-miterlimit="10" stroke-linecap="round" stroke-linejoin="round"/>
<path opacity="0.35" d="M486.249 894.603L540.388 987.939L619.82 884.328L486.249 894.603Z" stroke="#595959" stroke-width="0.545232" stroke-miterlimit="10" stroke-linecap="round" stroke-linejoin="round"/>
<path opacity="0.35" d="M620.058 657.333L552.438 779.275L627.646 779.418L620.058 657.333Z" stroke="#595959" stroke-width="0.545232" stroke-miterlimit="10" stroke-linecap="round" stroke-linejoin="round"/>
<path opacity="0.35" d="M486.249 894.603L619.84 884.328L568.761 841.61L486.249 894.603Z" stroke="#595959" stroke-width="0.545232" stroke-miterlimit="10" stroke-linecap="round" stroke-linejoin="round"/>
<path opacity="0.35" d="M452.436 797.296L486.249 894.603L568.742 841.609L452.436 797.296Z" stroke="#595959" stroke-width="0.545232" stroke-miterlimit="10" stroke-linecap="round" stroke-linejoin="round"/>
<path opacity="0.35" d="M552.438 779.276L452.436 797.296L568.751 841.6L552.438 779.276Z" stroke="#595959" stroke-width="0.545232" stroke-miterlimit="10" stroke-linecap="round" stroke-linejoin="round"/>
<path opacity="0.35" d="M859.237 908.922C856.713 909.436 855.083 911.899 855.595 914.423C856.108 916.947 858.569 918.575 861.093 918.06C863.617 917.546 865.248 915.083 864.735 912.559C864.223 910.035 861.761 908.407 859.237 908.922Z" fill="#595959"/>
<path opacity="0.35" d="M769.834 842.797C767.354 843.495 765.907 846.07 766.603 848.55C767.299 851.029 769.874 852.473 772.354 851.775C774.833 851.077 776.28 848.501 775.584 846.022C774.888 843.542 772.313 842.098 769.834 842.797Z" fill="#595959"/>
<path opacity="0.35" d="M762.397 785.918C759.859 786.356 758.154 788.769 758.59 791.307C759.026 793.845 761.437 795.547 763.975 795.109C766.514 794.671 768.218 792.258 767.782 789.72C767.346 787.182 764.935 785.48 762.397 785.918Z" fill="#595959"/>
<path opacity="0.35" d="M674.179 747.008C676.186 745.393 679.121 745.724 680.735 747.73C682.348 749.735 682.014 752.671 680.008 754.286C678.001 755.901 675.066 755.57 673.452 753.565C671.839 751.54 672.163 748.614 674.179 747.008Z" fill="#595959"/>
<path opacity="0.35" d="M701.484 846.639C703.491 845.024 706.426 845.355 708.04 847.361C709.654 849.366 709.32 852.301 707.313 853.917C705.306 855.532 702.371 855.201 700.757 853.196C699.144 851.19 699.478 848.255 701.484 846.639Z" fill="#595959"/>
<path opacity="0.35" d="M617.144 653.694C619.151 652.079 622.086 652.41 623.7 654.415C625.313 656.42 624.979 659.356 622.973 660.972C620.966 662.587 618.031 662.256 616.417 660.25C614.813 658.235 615.137 655.309 617.144 653.694Z" fill="#595959"/>
<path opacity="0.35" d="M624.742 775.789C626.748 774.174 629.684 774.505 631.297 776.51C632.911 778.516 632.577 781.451 630.57 783.067C628.563 784.682 625.628 784.351 624.014 782.346C622.411 780.331 622.735 777.405 624.742 775.789Z" fill="#595959"/>
<path opacity="0.35" d="M549.553 775.392C551.56 773.776 554.495 774.108 556.109 776.113C557.722 778.118 557.388 781.054 555.382 782.669C553.375 784.285 550.44 783.953 548.826 781.948C547.222 779.933 547.546 777.007 549.553 775.392Z" fill="#595959"/>
<path opacity="0.35" d="M565.847 837.97C567.853 836.355 570.789 836.686 572.402 838.692C574.016 840.697 573.682 843.632 571.675 845.248C569.669 846.863 566.733 846.532 565.12 844.527C563.516 842.512 563.83 839.576 565.847 837.97Z" fill="#595959"/>
<path opacity="0.35" d="M616.925 880.689C618.932 879.074 621.867 879.405 623.481 881.41C625.095 883.416 624.761 886.351 622.754 887.967C620.747 889.582 617.812 889.251 616.198 887.245C614.595 885.23 614.919 882.305 616.925 880.689Z" fill="#595959"/>
<path opacity="0.35" d="M485.312 890.062C482.788 890.576 481.157 893.039 481.669 895.563C482.182 898.087 484.643 899.715 487.167 899.2C489.691 898.686 491.322 896.223 490.81 893.699C490.297 891.176 487.836 889.547 485.312 890.062Z" fill="#595959"/>
<path opacity="0.35" d="M449.521 793.657C451.528 792.041 454.464 792.373 456.077 794.378C457.691 796.383 457.357 799.319 455.35 800.934C453.343 802.55 450.408 802.218 448.794 800.213C447.191 798.198 447.515 795.272 449.521 793.657Z" fill="#595959"/>
</g>
<g opacity="0.35">
<path opacity="0.35" d="M69.5255 223.961L136.134 220.536L127.245 164.246L69.5255 223.961Z" stroke="#595959" stroke-width="0.545232" stroke-miterlimit="10" stroke-linecap="round" stroke-linejoin="round"/>
<path opacity="0.35" d="M69.5257 223.961L54.9262 289.968L136.125 220.527L69.5257 223.961Z" stroke="#595959" stroke-width="0.545232" stroke-miterlimit="10" stroke-linecap="round" stroke-linejoin="round"/>
<path opacity="0.35" d="M54.936 289.978L136.406 335.932L136.144 220.546L54.936 289.978Z" stroke="#595959" stroke-width="0.545232" stroke-miterlimit="10" stroke-linecap="round" stroke-linejoin="round"/>
<path opacity="0.35" d="M69.5253 223.961L-15.0332 258.011L54.9259 289.968L69.5253 223.961Z" stroke="#595959" stroke-width="0.545232" stroke-miterlimit="10" stroke-linecap="round" stroke-linejoin="round"/>
<path opacity="0.35" d="M54.9361 289.978L10.8809 362.104L136.396 335.922L54.9361 289.978Z" stroke="#595959" stroke-width="0.545232" stroke-miterlimit="10" stroke-linecap="round" stroke-linejoin="round"/>
<path opacity="0.35" d="M127.235 164.256L41.4084 124.126L69.5256 223.961L127.235 164.256Z" stroke="#595959" stroke-width="0.545232" stroke-miterlimit="10" stroke-linecap="round" stroke-linejoin="round"/>
<path opacity="0.35" d="M69.5257 223.962L-7.21673 153.112L-15.0327 258.012L69.5257 223.962Z" stroke="#595959" stroke-width="0.545232" stroke-miterlimit="10" stroke-linecap="round" stroke-linejoin="round"/>
<path opacity="0.35" d="M136.396 335.922L225.824 287.261L136.144 220.527L136.396 335.922Z" stroke="#595959" stroke-width="0.545232" stroke-miterlimit="10" stroke-linecap="round" stroke-linejoin="round"/>
<path opacity="0.35" d="M41.4183 124.136L-7.21687 153.111L69.5255 223.961L41.4183 124.136Z" stroke="#595959" stroke-width="0.545232" stroke-miterlimit="10" stroke-linecap="round" stroke-linejoin="round"/>
<path opacity="0.35" d="M-15.0329 258.012L10.8711 362.114L54.9264 289.988L-15.0329 258.012Z" stroke="#595959" stroke-width="0.545232" stroke-miterlimit="10" stroke-linecap="round" stroke-linejoin="round"/>
<path opacity="0.35" d="M-94.4652 361.623L-53.2757 396.664L10.8811 362.104L-94.4652 361.623Z" stroke="#595959" stroke-width="0.545232" stroke-miterlimit="10" stroke-linecap="round" stroke-linejoin="round"/>
<path opacity="0.35" d="M-7.21714 153.112L-66.1119 215.294L-15.033 258.012L-7.21714 153.112Z" stroke="#595959" stroke-width="0.545232" stroke-miterlimit="10" stroke-linecap="round" stroke-linejoin="round"/>
<path opacity="0.35" d="M136.396 335.922L251.236 375.501L225.815 287.27L136.396 335.922Z" stroke="#595959" stroke-width="0.545232" stroke-miterlimit="10" stroke-linecap="round" stroke-linejoin="round"/>
<path opacity="0.35" d="M152.857 441.859L251.226 375.491L136.386 335.913L152.857 441.859Z" stroke="#595959" stroke-width="0.545232" stroke-miterlimit="10" stroke-linecap="round" stroke-linejoin="round"/>
<path opacity="0.35" d="M41.4185 124.136L-14.8046 31.0262L-7.20689 153.121L41.4185 124.136Z" stroke="#595959" stroke-width="0.545232" stroke-miterlimit="10" stroke-linecap="round" stroke-linejoin="round"/>
<path opacity="0.35" d="M10.8808 362.104L40.1291 426.692L136.396 335.922L10.8808 362.104Z" stroke="#595959" stroke-width="0.545232" stroke-miterlimit="10" stroke-linecap="round" stroke-linejoin="round"/>
<path opacity="0.35" d="M-53.276 396.664L40.1191 426.702L10.8709 362.114L-53.276 396.664Z" stroke="#595959" stroke-width="0.545232" stroke-miterlimit="10" stroke-linecap="round" stroke-linejoin="round"/>
<path opacity="0.35" d="M40.1291 426.693L95.4526 408.262L136.406 335.912L40.1291 426.693Z" stroke="#595959" stroke-width="0.545232" stroke-miterlimit="10" stroke-linecap="round" stroke-linejoin="round"/>
<path opacity="0.35" d="M95.4428 408.271L152.857 441.877L136.396 335.941L95.4428 408.271Z" stroke="#595959" stroke-width="0.545232" stroke-miterlimit="10" stroke-linecap="round" stroke-linejoin="round"/>
<path opacity="0.35" d="M-94.4652 361.623L10.881 362.104L-15.0229 258.002L-94.4652 361.623Z" stroke="#595959" stroke-width="0.545232" stroke-miterlimit="10" stroke-linecap="round" stroke-linejoin="round"/>
<path opacity="0.35" d="M-14.8052 31.0066L-82.4256 152.949L-7.21718 153.092L-14.8052 31.0066Z" stroke="#595959" stroke-width="0.545232" stroke-miterlimit="10" stroke-linecap="round" stroke-linejoin="round"/>
<path opacity="0.35" d="M222.411 283.514C224.418 281.899 227.353 282.23 228.967 284.235C230.58 286.24 230.246 289.176 228.24 290.791C226.233 292.407 223.298 292.075 221.684 290.07C220.08 288.055 220.404 285.129 222.411 283.514Z" fill="#595959"/>
<path opacity="0.35" d="M133.328 217.357C135.334 215.742 138.27 216.073 139.883 218.078C141.497 220.084 141.163 223.019 139.156 224.635C137.15 226.25 134.214 225.919 132.601 223.913C130.997 221.898 131.321 218.973 133.328 217.357Z" fill="#595959"/>
<path opacity="0.35" d="M125.387 160.567C127.394 158.952 130.329 159.283 131.943 161.288C133.557 163.293 133.223 166.229 131.216 167.845C129.209 169.46 126.274 169.129 124.66 167.123C123.057 165.108 123.381 162.183 125.387 160.567Z" fill="#595959"/>
<path opacity="0.35" d="M41.1992 119.709C38.6938 120.308 37.1469 122.825 37.7441 125.329C38.3413 127.834 40.8564 129.379 43.3618 128.78C45.8671 128.18 47.4141 125.664 46.8169 123.159C46.2197 120.654 43.7046 119.109 41.1992 119.709Z" fill="#595959"/>
<path opacity="0.35" d="M66.6212 220.333C68.6278 218.717 71.5632 219.049 73.1768 221.054C74.7904 223.059 74.4564 225.995 72.4497 227.61C70.4431 229.226 67.5077 228.894 65.8941 226.889C64.2903 224.874 64.6047 221.938 66.6212 220.333Z" fill="#595959"/>
<path opacity="0.35" d="M52.0214 286.339C54.0281 284.723 56.9636 285.055 58.5772 287.06C60.1909 289.065 59.8569 292.001 57.8502 293.617C55.8435 295.232 52.908 294.901 51.2944 292.895C49.6905 290.88 50.0147 287.954 52.0214 286.339Z" fill="#595959"/>
<path opacity="0.35" d="M133.491 332.293C135.498 330.678 138.433 331.009 140.047 333.014C141.661 335.02 141.327 337.955 139.32 339.571C137.313 341.186 134.378 340.855 132.764 338.849C131.141 336.834 131.475 333.899 133.491 332.293Z" fill="#595959"/>
<path opacity="0.35" d="M150.245 440.166C152.251 438.551 155.187 438.882 156.8 440.887C158.414 442.893 158.08 445.828 156.073 447.444C154.067 449.059 151.131 448.728 149.518 446.723C147.914 444.707 148.238 441.782 150.245 440.166Z" fill="#595959"/>
<path opacity="0.35" d="M248.322 371.863C250.329 370.247 253.264 370.579 254.878 372.584C256.491 374.589 256.157 377.525 254.151 379.14C252.144 380.755 249.209 380.424 247.595 378.419C245.991 376.404 246.315 373.478 248.322 371.863Z" fill="#595959"/>
<path opacity="0.35" d="M9.57503 357.613C7.09515 358.312 5.64893 360.887 6.34479 363.367C7.04066 365.846 9.61511 367.29 12.095 366.592C14.5749 365.894 16.0211 363.318 15.3252 360.839C14.6294 358.359 12.0549 356.915 9.57503 357.613Z" fill="#595959"/>
<path opacity="0.35" d="M37.8799 423.033C39.8866 421.417 42.8219 421.749 44.4356 423.754C46.0492 425.759 45.7152 428.695 43.7085 430.31C41.7019 431.926 38.7665 431.594 37.1529 429.589C35.549 427.574 35.8635 424.639 37.8799 423.033Z" fill="#595959"/>
</g>
<g opacity="0.35">
<path opacity="0.35" d="M-16.0686 694.526L43.0883 725.254L63.8857 672.181L-16.0686 694.526Z" stroke="#595959" stroke-width="0.545232" stroke-miterlimit="10" stroke-linecap="round" stroke-linejoin="round"/>
<path opacity="0.35" d="M-16.0681 694.526L-62.041 744.118L43.0887 725.254L-16.0681 694.526Z" stroke="#595959" stroke-width="0.545232" stroke-miterlimit="10" stroke-linecap="round" stroke-linejoin="round"/>
<path opacity="0.35" d="M-62.0413 744.117L-15.05 824.98L43.0884 725.254L-62.0413 744.117Z" stroke="#595959" stroke-width="0.545232" stroke-miterlimit="10" stroke-linecap="round" stroke-linejoin="round"/>
<path opacity="0.35" d="M-62.0413 744.117L-136.504 784.093L-15.0403 824.97L-62.0413 744.117Z" stroke="#595959" stroke-width="0.545232" stroke-miterlimit="10" stroke-linecap="round" stroke-linejoin="round"/>
<path opacity="0.35" d="M63.8857 672.18L10.1807 594.139L-16.0685 694.526L63.8857 672.18Z" stroke="#595959" stroke-width="0.545232" stroke-miterlimit="10" stroke-linecap="round" stroke-linejoin="round"/>
<path opacity="0.35" d="M-16.0685 694.526L-46.4069 594.565L-106.193 681.151L-16.0685 694.526Z" stroke="#595959" stroke-width="0.545232" stroke-miterlimit="10" stroke-linecap="round" stroke-linejoin="round"/>
<path opacity="0.35" d="M-15.0499 824.981L86.655 828.204L43.069 725.255L-15.0499 824.981Z" stroke="#595959" stroke-width="0.545232" stroke-miterlimit="10" stroke-linecap="round" stroke-linejoin="round"/>
<path opacity="0.35" d="M10.1808 594.139L-46.4066 594.565L-16.0684 694.526L10.1808 594.139Z" stroke="#595959" stroke-width="0.545232" stroke-miterlimit="10" stroke-linecap="round" stroke-linejoin="round"/>
<path opacity="0.35" d="M-15.0499 824.98L63.9531 917.219L86.655 828.203L-15.0499 824.98Z" stroke="#595959" stroke-width="0.545232" stroke-miterlimit="10" stroke-linecap="round" stroke-linejoin="round"/>
<path opacity="0.35" d="M-54.4308 924.747L63.9528 917.219L-15.0503 824.98L-54.4308 924.747Z" stroke="#595959" stroke-width="0.545232" stroke-miterlimit="10" stroke-linecap="round" stroke-linejoin="round"/>
<path opacity="0.35" d="M10.181 594.139L8.80061 485.329L-46.3968 594.555L10.181 594.139Z" stroke="#595959" stroke-width="0.545232" stroke-miterlimit="10" stroke-linecap="round" stroke-linejoin="round"/>
<path opacity="0.35" d="M-86.94 866.707L-54.4304 924.747L-15.0499 824.98L-86.94 866.707Z" stroke="#595959" stroke-width="0.545232" stroke-miterlimit="10" stroke-linecap="round" stroke-linejoin="round"/>
<path opacity="0.35" d="M8.79083 485.339L-111.187 556.393L-46.4163 594.555L8.79083 485.339Z" stroke="#595959" stroke-width="0.545232" stroke-miterlimit="10" stroke-linecap="round" stroke-linejoin="round"/>
<path opacity="0.35" d="M85.6198 823.253C88.1641 822.88 90.5313 824.64 90.902 827.184C91.2727 829.728 89.5104 832.097 86.9661 832.47C84.4218 832.843 82.0545 831.082 81.6838 828.538C81.3131 825.994 83.0755 823.626 85.6198 823.253Z" fill="#595959"/>
<path opacity="0.35" d="M42.2784 721.095C44.8227 720.722 47.1898 722.482 47.5605 725.026C47.9312 727.57 46.1688 729.939 43.6245 730.312C41.0803 730.685 38.7131 728.925 38.3424 726.381C37.962 723.827 39.7341 721.468 42.2784 721.095Z" fill="#595959"/>
<path opacity="0.35" d="M64.1518 668.06C66.6961 667.687 69.0633 669.448 69.434 671.992C69.8048 674.536 68.0424 676.904 65.4981 677.277C62.9538 677.65 60.5865 675.89 60.2158 673.346C59.8353 670.792 61.6075 668.433 64.1518 668.06Z" fill="#595959"/>
<path opacity="0.35" d="M10.0942 590.098C12.6385 589.725 15.0057 591.485 15.3764 594.029C15.7471 596.573 13.9847 598.942 11.4404 599.315C8.89615 599.688 6.52897 597.928 6.15825 595.384C5.78753 592.84 7.5499 590.471 10.0942 590.098Z" fill="#595959"/>
<path opacity="0.35" d="M8.12744 480.72C10.6717 480.347 13.039 482.107 13.4096 484.651C13.7803 487.195 12.018 489.564 9.47366 489.937C6.92938 490.31 4.56215 488.55 4.19146 486.006C3.81098 483.452 5.57336 481.103 8.12744 480.72Z" fill="#595959"/>
</g>
<g opacity="0.35">
<path opacity="0.35" d="M148.506 851.445L189.167 798.558L140.568 768.833L148.506 851.445Z" stroke="#595959" stroke-width="0.545232" stroke-miterlimit="10" stroke-linecap="round" stroke-linejoin="round"/>
<path opacity="0.35" d="M148.506 851.445L189.247 905.343L189.167 798.558L148.506 851.445Z" stroke="#595959" stroke-width="0.545232" stroke-miterlimit="10" stroke-linecap="round" stroke-linejoin="round"/>
<path opacity="0.35" d="M189.247 905.344L277.131 873.151L189.177 798.549L189.247 905.344Z" stroke="#595959" stroke-width="0.545232" stroke-miterlimit="10" stroke-linecap="round" stroke-linejoin="round"/>
<path opacity="0.35" d="M148.506 851.446L119.475 937.851L189.247 905.343L148.506 851.446Z" stroke="#595959" stroke-width="0.545232" stroke-miterlimit="10" stroke-linecap="round" stroke-linejoin="round"/>
<path opacity="0.35" d="M189.247 905.343L215.513 985.628L277.141 873.16L189.247 905.343Z" stroke="#595959" stroke-width="0.545232" stroke-miterlimit="10" stroke-linecap="round" stroke-linejoin="round"/>
<path opacity="0.35" d="M140.568 768.833L54.2849 808.11L148.506 851.445L140.568 768.833Z" stroke="#595959" stroke-width="0.545232" stroke-miterlimit="10" stroke-linecap="round" stroke-linejoin="round"/>
<path opacity="0.35" d="M148.506 851.445L44.7394 863.899L119.475 937.851L148.506 851.445Z" stroke="#595959" stroke-width="0.545232" stroke-miterlimit="10" stroke-linecap="round" stroke-linejoin="round"/>
<path opacity="0.35" d="M277.131 873.15L298.194 773.567L189.167 798.538L277.131 873.15Z" stroke="#595959" stroke-width="0.545232" stroke-miterlimit="10" stroke-linecap="round" stroke-linejoin="round"/>
<path opacity="0.35" d="M54.2852 808.11L44.7394 863.9L148.506 851.446L54.2852 808.11Z" stroke="#595959" stroke-width="0.545232" stroke-miterlimit="10" stroke-linecap="round" stroke-linejoin="round"/>
<path opacity="0.35" d="M119.474 937.851L215.504 985.618L189.237 905.333L119.474 937.851Z" stroke="#595959" stroke-width="0.545232" stroke-miterlimit="10" stroke-linecap="round" stroke-linejoin="round"/>
<path opacity="0.35" d="M44.7393 863.899L53.7821 949.025L119.474 937.851L44.7393 863.899Z" stroke="#595959" stroke-width="0.545232" stroke-miterlimit="10" stroke-linecap="round" stroke-linejoin="round"/>
<path opacity="0.35" d="M277.132 873.15L381.84 811.438L298.204 773.577L277.132 873.15Z" stroke="#595959" stroke-width="0.545232" stroke-miterlimit="10" stroke-linecap="round" stroke-linejoin="round"/>
<path opacity="0.35" d="M368.431 929.305L381.84 811.438L277.132 873.15L368.431 929.305Z" stroke="#595959" stroke-width="0.545232" stroke-miterlimit="10" stroke-linecap="round" stroke-linejoin="round"/>
<path opacity="0.35" d="M54.2849 808.11L-53.0891 790.525L44.7392 863.899L54.2849 808.11Z" stroke="#595959" stroke-width="0.545232" stroke-miterlimit="10" stroke-linecap="round" stroke-linejoin="round"/>
<path opacity="0.35" d="M44.7393 863.899L-4.23116 921.027L53.7821 949.026L44.7393 863.899Z" stroke="#595959" stroke-width="0.545232" stroke-miterlimit="10" stroke-linecap="round" stroke-linejoin="round"/>
<path opacity="0.35" d="M215.504 985.619L283.638 1005.24L277.112 873.151L215.504 985.619Z" stroke="#595959" stroke-width="0.545232" stroke-miterlimit="10" stroke-linecap="round" stroke-linejoin="round"/>
<path opacity="0.35" d="M283.648 1005.25L305.562 951.213L277.122 873.16L283.648 1005.25Z" stroke="#595959" stroke-width="0.545232" stroke-miterlimit="10" stroke-linecap="round" stroke-linejoin="round"/>
<path opacity="0.35" d="M305.571 951.204L368.431 929.306L277.131 873.151L305.571 951.204Z" stroke="#595959" stroke-width="0.545232" stroke-miterlimit="10" stroke-linecap="round" stroke-linejoin="round"/>
<path opacity="0.35" d="M-53.0889 790.525L-4.2312 921.026L44.7393 863.899L-53.0889 790.525Z" stroke="#595959" stroke-width="0.545232" stroke-miterlimit="10" stroke-linecap="round" stroke-linejoin="round"/>
<path opacity="0.35" d="M-4.23133 921.026L-55.4856 1008.8L53.7917 949.035L-4.23133 921.026Z" stroke="#595959" stroke-width="0.545232" stroke-miterlimit="10" stroke-linecap="round" stroke-linejoin="round"/>
<path opacity="0.35" d="M301.092 770.572C299.271 768.752 296.319 768.753 294.497 770.575C292.675 772.397 292.673 775.35 294.494 777.17C296.314 778.991 299.267 778.989 301.089 777.167C302.911 775.345 302.912 772.392 301.092 770.572Z" fill="#595959"/>
<path opacity="0.35" d="M184.93 798.629C185.01 796.066 187.153 794.039 189.737 794.116C192.3 794.193 194.325 796.335 194.245 798.919C194.166 801.482 192.022 803.509 189.439 803.432C186.866 803.345 184.851 801.193 184.93 798.629Z" fill="#595959"/>
<path opacity="0.35" d="M136.566 767.846C136.646 765.283 138.79 763.256 141.373 763.333C143.956 763.411 145.961 765.553 145.882 768.136C145.802 770.7 143.658 772.726 141.075 772.649C138.502 772.562 136.477 770.42 136.566 767.846Z" fill="#595959"/>
<path opacity="0.35" d="M58.2499 804.322C56.4295 802.501 53.4768 802.502 51.6548 804.324C49.8328 806.147 49.8314 809.099 51.6518 810.92C53.4722 812.74 56.425 812.739 58.2471 810.917C60.0691 809.095 60.0703 806.142 58.2499 804.322Z" fill="#595959"/>
<path opacity="0.35" d="M143.858 851.301C143.937 848.737 146.081 846.71 148.664 846.787C151.248 846.865 153.253 849.007 153.173 851.59C153.094 854.154 150.95 856.18 148.367 856.103C145.793 856.016 143.769 853.874 143.858 851.301Z" fill="#595959"/>
<path opacity="0.35" d="M48.0385 860.599C46.2182 858.779 43.2654 858.78 41.4434 860.602C39.6214 862.424 39.6201 865.377 41.4404 867.198C43.2608 869.018 46.2136 869.017 48.0356 867.195C49.8576 865.373 49.8589 862.42 48.0385 860.599Z" fill="#595959"/>
<path opacity="0.35" d="M192.546 902.044C190.725 900.224 187.773 900.225 185.951 902.047C184.129 903.869 184.127 906.822 185.948 908.642C187.768 910.463 190.721 910.461 192.543 908.639C194.365 906.817 194.366 903.865 192.546 902.044Z" fill="#595959"/>
<path opacity="0.35" d="M272.474 873.015C272.553 870.452 274.697 868.425 277.28 868.502C279.844 868.58 281.869 870.722 281.789 873.305C281.71 875.869 279.566 877.895 276.983 877.818C274.409 877.731 272.394 875.579 272.474 873.015Z" fill="#595959"/>
<path opacity="0.35" d="M385.139 808.139C383.319 806.319 380.366 806.32 378.544 808.142C376.722 809.964 376.721 812.917 378.541 814.737C380.361 816.557 383.314 816.556 385.136 814.734C386.958 812.912 386.96 809.959 385.139 808.139Z" fill="#595959"/>
</g>
<path d="M166.522 803.97L195.145 888.921L264.761 856.844L166.522 803.97Z" stroke="#595959" stroke-width="0.545232" stroke-miterlimit="10" stroke-linecap="round" stroke-linejoin="round"/>
<path d="M166.522 803.97L75.7728 809.196L195.135 888.931L166.522 803.97Z" stroke="#595959" stroke-width="0.545232" stroke-miterlimit="10" stroke-linecap="round" stroke-linejoin="round"/>
<path d="M75.7727 809.196L45.8738 931.425L195.135 888.911L75.7727 809.196Z" stroke="#595959" stroke-width="0.545232" stroke-miterlimit="10" stroke-linecap="round" stroke-linejoin="round"/>
<path d="M166.522 803.969L91.7484 706.954L75.7727 809.196L166.522 803.969Z" stroke="#595959" stroke-width="0.545232" stroke-miterlimit="10" stroke-linecap="round" stroke-linejoin="round"/>
<path d="M75.7725 809.196L-33.5918 778.539L45.8833 931.435L75.7725 809.196Z" stroke="#595959" stroke-width="0.545232" stroke-miterlimit="10" stroke-linecap="round" stroke-linejoin="round"/>
<path d="M264.761 856.844L285.532 731.086L166.512 803.96L264.761 856.844Z" stroke="#595959" stroke-width="0.545232" stroke-miterlimit="10" stroke-linecap="round" stroke-linejoin="round"/>
<path d="M166.522 803.97L230.367 678.741L91.7485 706.955L166.522 803.97Z" stroke="#595959" stroke-width="0.545232" stroke-miterlimit="10" stroke-linecap="round" stroke-linejoin="round"/>
<path d="M45.8834 931.435L141.333 1029.39L195.135 888.911L45.8834 931.435Z" stroke="#595959" stroke-width="0.545232" stroke-miterlimit="10" stroke-linecap="round" stroke-linejoin="round"/>
<path d="M285.541 731.095L230.367 678.74L166.522 803.969L285.541 731.095Z" stroke="#595959" stroke-width="0.545232" stroke-miterlimit="10" stroke-linecap="round" stroke-linejoin="round"/>
<path d="M91.7484 706.954L-33.5817 778.529L75.7826 809.186L91.7484 706.954Z" stroke="#595959" stroke-width="0.545232" stroke-miterlimit="10" stroke-linecap="round" stroke-linejoin="round"/>
<path d="M-71.2233 641.994L-101.626 708.116L-33.6016 778.529L-71.2233 641.994Z" stroke="#595959" stroke-width="0.545232" stroke-miterlimit="10" stroke-linecap="round" stroke-linejoin="round"/>
<path d="M230.367 678.74L128.488 625.222L91.7481 706.954L230.367 678.74Z" stroke="#595959" stroke-width="0.545232" stroke-miterlimit="10" stroke-linecap="round" stroke-linejoin="round"/>
<path d="M-85.2732 991.466L36.3588 1094.54L45.8739 931.425L-85.2732 991.466Z" stroke="#595959" stroke-width="0.545232" stroke-miterlimit="10" stroke-linecap="round" stroke-linejoin="round"/>
<path d="M285.542 731.096L385.651 624.296L230.367 678.741L285.542 731.096Z" stroke="#595959" stroke-width="0.545232" stroke-miterlimit="10" stroke-linecap="round" stroke-linejoin="round"/>
<path d="M230.367 678.741L203.247 581.332L128.489 625.222L230.367 678.741Z" stroke="#595959" stroke-width="0.545232" stroke-miterlimit="10" stroke-linecap="round" stroke-linejoin="round"/>
<path d="M-33.5915 778.539L-106.577 840.003L45.8836 931.435L-33.5915 778.539Z" stroke="#595959" stroke-width="0.545232" stroke-miterlimit="10" stroke-linecap="round" stroke-linejoin="round"/>
<path d="M-106.586 839.992L-62.6409 904.867L45.8837 931.434L-106.586 839.992Z" stroke="#595959" stroke-width="0.545232" stroke-miterlimit="10" stroke-linecap="round" stroke-linejoin="round"/>
<path d="M-62.641 904.868L-85.2733 991.466L45.8836 931.435L-62.641 904.868Z" stroke="#595959" stroke-width="0.545232" stroke-miterlimit="10" stroke-linecap="round" stroke-linejoin="round"/>
<path d="M-71.2232 641.994L-33.6014 778.529L91.7287 706.954L-71.2232 641.994Z" stroke="#595959" stroke-width="0.545232" stroke-miterlimit="10" stroke-linecap="round" stroke-linejoin="round"/>
<path d="M29.9329 537.806L-71.2131 642.004L91.7484 706.973L29.9329 537.806Z" stroke="#595959" stroke-width="0.545232" stroke-miterlimit="10" stroke-linecap="round" stroke-linejoin="round"/>
<path d="M385.651 624.296L203.246 581.332L230.367 678.741L385.651 624.296Z" stroke="#595959" stroke-width="0.545232" stroke-miterlimit="10" stroke-linecap="round" stroke-linejoin="round"/>
<path d="M29.9324 537.807L91.7383 706.964L128.479 625.233L29.9324 537.807Z" stroke="#595959" stroke-width="0.545232" stroke-miterlimit="10" stroke-linecap="round" stroke-linejoin="round"/>
<path d="M143.602 458.468L29.9326 537.807L128.488 625.222L143.602 458.468Z" stroke="#595959" stroke-width="0.545232" stroke-miterlimit="10" stroke-linecap="round" stroke-linejoin="round"/>
<path d="M203.247 581.332L143.602 458.467L128.488 625.222L203.247 581.332Z" stroke="#595959" stroke-width="0.545232" stroke-miterlimit="10" stroke-linecap="round" stroke-linejoin="round"/>
<path d="M198.229 884.135C201.046 886.149 201.69 890.063 199.683 892.872C197.666 895.691 193.752 896.339 190.944 894.334C188.127 892.32 187.483 888.406 189.49 885.597C191.507 882.778 195.422 882.13 198.229 884.135Z" fill="#595959"/>
<path d="M268.872 853.104C271.689 855.118 272.333 859.032 270.326 861.841C268.309 864.66 264.395 865.308 261.587 863.303C258.78 861.298 258.126 857.375 260.133 854.565C262.141 851.737 266.055 851.089 268.872 853.104Z" fill="#595959"/>
<path d="M289.232 727.112C292.049 729.126 292.693 733.04 290.686 735.849C288.669 738.668 284.755 739.316 281.947 737.311C279.13 735.297 278.486 731.383 280.493 728.574C282.5 725.745 286.415 725.097 289.232 727.112Z" fill="#595959"/>
<path d="M170.164 798.879C172.981 800.894 173.625 804.808 171.618 807.617C169.601 810.436 165.687 811.084 162.879 809.079C160.062 807.064 159.418 803.151 161.425 800.341C163.433 797.513 167.357 796.855 170.164 798.879Z" fill="#595959"/>
<path d="M389.294 619.186C392.111 621.2 392.755 625.114 390.748 627.923C388.731 630.742 384.817 631.39 382.009 629.385C379.192 627.37 378.548 623.457 380.555 620.647C382.562 617.838 386.486 617.181 389.294 619.186Z" fill="#595959"/>
<path d="M234 673.641C236.817 675.655 237.461 679.569 235.454 682.378C233.437 685.197 229.522 685.845 226.715 683.84C223.898 681.826 223.254 677.912 225.261 675.103C227.278 672.284 231.202 671.626 234 673.641Z" fill="#595959"/>
<path d="M207.212 576.173C210.029 578.188 210.673 582.102 208.666 584.911C206.649 587.73 202.735 588.377 199.927 586.373C197.11 584.358 196.466 580.445 198.473 577.635C200.49 574.816 204.395 574.159 207.212 576.173Z" fill="#595959"/>
<path d="M132.14 620.123C134.958 622.137 135.602 626.051 133.594 628.86C131.578 631.679 127.663 632.327 124.856 630.322C122.039 628.307 121.394 624.394 123.402 621.584C125.409 618.756 129.323 618.108 132.14 620.123Z" fill="#595959"/>
<path d="M95.3907 701.864C98.2079 703.878 98.8519 707.792 96.8447 710.601C94.8277 713.42 90.9135 714.068 88.1061 712.063C85.2889 710.049 84.6448 706.135 86.652 703.326C88.669 700.507 92.5735 699.85 95.3907 701.864Z" fill="#595959"/>
<path d="M79.4248 804.096C82.242 806.111 82.8861 810.024 80.8789 812.834C78.862 815.653 74.9476 816.3 72.1401 814.296C69.3229 812.281 68.6789 808.367 70.6861 805.558C72.7031 802.739 76.6076 802.082 79.4248 804.096Z" fill="#595959"/>
<path d="M33.5848 532.707C36.402 534.722 37.046 538.635 35.0388 541.445C33.0219 544.264 29.1075 544.911 26.3001 542.906C23.4829 540.892 22.8388 536.978 24.846 534.169C26.8532 531.34 30.7676 530.693 33.5848 532.707Z" fill="#595959"/>
<path d="M147.255 453.368C150.072 455.382 150.716 459.296 148.709 462.105C146.692 464.924 142.777 465.572 139.97 463.567C137.153 461.553 136.509 457.639 138.516 454.83C140.523 452.001 144.437 451.353 147.255 453.368Z" fill="#595959"/>
</g>
<defs>
<clipPath id="clip0">
<rect width="1412.28" height="747.029" fill="white" transform="translate(408.635 1485.86) rotate(-135)"/>
</clipPath>
</defs>
</svg>
